Projekt nr 2
…
klasyfikacja

## # A tibble: 441 x 4
## # Groups:   NOC [147]
##    NOC    suma Medal      n
##    <chr> <int> <fct>  <int>
##  1 USA    2521 Bronze   701
##  2 USA    2521 Gold    1023
##  3 USA    2521 Silver   797
##  4 URS    1005 Bronze   294
##  5 URS    1005 Gold     394
##  6 URS    1005 Silver   317
##  7 GBR     867 Bronze   293
##  8 GBR     867 Gold     270
##  9 GBR     867 Silver   304
## 10 GER     762 Bronze   278
## # ... with 431 more rows
…
